Notes for future presentations
------------------------------
Activities throughout the week
	Individual + Group
Accomplishments
	Individual + Group
Problems
	Individual + Group
	
------------------------------

For next week 2/10/16
------------------------------
Write out usage scenarios
Flesh out use case descriptions